…
``` r
# Analyze the network of a specific author
get_network(author.id = 'https://openalex.org/A5022479713')
#> Requesting url:
#> <https://api.openalex.org/works?filter=author.id%3Ahttps%3A%2F%2Fopenalex.org%2FA5022479713%2Cis_paratext%3Afalse%2Cis_retracted%3Afalse>
#> ℹ Getting 2 pages of results with a total of 275 records...
#> ⠙ Converting [90/275] ■■■■■■■■■■■                       33% ETA:  2s
#> ⠹ Converting [240/275] ■■■■■■■■■■■■■■■■■■■■■■■■■■■       87% ETA:  0s
#> ⠹ Converting [275/275] ■■■■■■■■■■■■■■■■■■■■■■■■■■■■■■■  100% ETA:  0s
#> 
#> [1] "Using the provided works."
#> [1] "289 unique identifiable co-authors with at least 2 joint papers; 73% from 28 international countries, 27% from the same country. The evenness (ranging from 0=only one country to 1=even distribution among all countries) is 0.77. The 4 countries with the most coauthors are: DE (79), US (74), NL (43), GB (24)."
#> [1] "3 primary fields: Psychology (136), Decision Sciences (47), Computer Science (32). The evenness (ranging from 0=only one field to 1=even distribution among all fields) is 0.51."
#> $unique_coauthor_edges
#> # A tibble: 428 × 3
#>    id                               country_code n_coauthorships
#>    <chr>                            <chr>                  <int>
#>  1 https://openalex.org/A5056348040 DE                        18
#>  2 https://openalex.org/A5039784616 DE                        16
#>  3 https://openalex.org/A5063079579 NL                        16
#>  4 https://openalex.org/A5052525257 DE                        13
#>  5 https://openalex.org/A5031368517 DE                        12
#>  6 https://openalex.org/A5055189096 DE                        11
#>  7 https://openalex.org/A5083504666 DE                        11
#>  8 https://openalex.org/A5089676027 DE                        10
#>  9 https://openalex.org/A5000733234 DE                         9
#> 10 https://openalex.org/A5043481987 DE                         9
#> # ℹ 418 more rows
#> 
#> $n_coauthors_international
#> [1] 210
#> 
#> $n_coauthors_same_country
#> [1] 79
#> 
#> $international_evenness
#> [1] 0.7730475
#> 
#> $country_codes_repeated
#> # A tibble: 29 × 2
#>    country_code     n
#>    <chr>        <int>
#>  1 DE              79
#>  2 US              74
#>  3 NL              43
#>  4 GB              24
#>  5 IT               9
#>  6 AT               7
#>  7 CH               7
#>  8 SE               7
#>  9 AU               4
#> 10 ES               4
#> # ℹ 19 more rows
…
get_network(author.id = 'https://openalex.org/A5022479713',
    doi = c(
        'https://doi.org/10.1037/pspp0000428',
        'https://doi.org/10.1017/S0033291722003294',
        'https://doi.org/10.5964/ps.6029',
        'https://doi.org/10.1146/annurev-psych-020821-114157'))
#> Requesting url:
#> <https://api.openalex.org/works?filter=doi%3Ahttps%3A%2F%2Fdoi.org%2F10.1037%2Fpspp0000428%7Chttps%3A%2F%2Fdoi.org%2F10.1017%2FS0033291722003294%7Chttps%3A%2F%2Fdoi.org%2F10.5964%2Fps.6029%7Chttps%3A%2F%2Fdoi.org%2F10.1146%2Fannurev-psych-020821-114157%2Cis_paratext%3Afalse%2Cis_retracted%3Afalse>
#> ℹ Getting 1 page of results with a total of 4 records...
#> Warning: Only one country present, setting evenness index to 0.
#> [1] "0 unique identifiable co-authors with at least 2 joint papers; NaN% from -1 international countries, NaN% from the same country. The evenness (ranging from 0=only one country to 1=even distribution among all countries) is 0."
#> Warning: Only one field present, setting evenness index to 0.
#> [1] "1 primary fields: Psychology (4). The evenness (ranging from 0=only one field to 1=even distribution among all fields) is 0."
#> $unique_coauthor_edges
#> # A tibble: 35 × 3
#>    id                               country_code n_coauthorships
#>    <chr>                            <chr>                  <int>
#>  1 https://openalex.org/A5001668502 DE                         1
#>  2 https://openalex.org/A5004866926 NL                         1
#>  3 https://openalex.org/A5006406097 AU                         1
#>  4 https://openalex.org/A5011404541 AU                         1
#>  5 https://openalex.org/A5015649291 NL                         1
#>  6 https://openalex.org/A5017494791 DE                         1
#>  7 https://openalex.org/A5021314811 SE                         1
#>  8 https://openalex.org/A5027185097 US                         1
#>  9 https://openalex.org/A5027692708 DE                         1
#> 10 https://openalex.org/A5027778611 DE                         1
#> # ℹ 25 more rows
…
